…
fit_over_cities
```

    ## # A tibble: 47 × 5
    ##    city_state     term              OR CI_Lower CI_Upper
    ##    <chr>          <chr>          <dbl>    <dbl>    <dbl>
    ##  1 Albuquerque,NM victim_sexMale 1.77     0.831    3.76 
    ##  2 Atlanta,GA     victim_sexMale 1.00     0.684    1.46 
    ##  3 Baltimore,MD   victim_sexMale 0.426    0.325    0.558
    ##  4 Baton Rouge,LA victim_sexMale 0.381    0.209    0.695
    ##  5 Birmingham,AL  victim_sexMale 0.870    0.574    1.32 
    ##  6 Boston,MA      victim_sexMale 0.667    0.354    1.26 
    ##  7 Buffalo,NY     victim_sexMale 0.521    0.290    0.935
    ##  8 Charlotte,NC   victim_sexMale 0.884    0.557    1.40 
    ##  9 Chicago,IL     victim_sexMale 0.410    0.336    0.501
    ## 10 Cincinnati,OH  victim_sexMale 0.400    0.236    0.677
    ## # … with 37 more rows
…
# Add Residuals and Predictors

``` r
birth_3 = 
  birth_2 %>% 
  add_residuals(l1) %>%
  add_predictions(l1)

birth_3
```

    ## # A tibble: 4,342 × 5
    ##      bwt bhead blength  resid  pred
    ##    <dbl> <dbl>   <dbl>  <dbl> <dbl>
    ##  1  3629    34      51  357.  3272.
    ##  2  3062    34      48   45.5 3017.
    ##  3  3345    36      50 -134.  3479.
    ##  4  3062    34      52 -295.  3357.
    ##  5  3374    34      52   17.3 3357.
    ##  6  3374    33      52  163.  3211.
    ##  7  2523    33      46 -177.  2700.
    ##  8  2778    33      49 -178.  2956.
    ##  9  3515    36      52 -134.  3649.
    ## 10  3459    33      50  418.  3041.
    ## # … with 4,332 more rows
…
``` r
l2 = 
  lm(bwt ~ blength + gaweeks, data = birth_wt)

second_set = 
  birth_wt %>% 
  select(bwt, blength, gaweeks) %>%
  add_residuals(l2) %>%
  add_predictions(l2)

second_set
```

    ## # A tibble: 4,342 × 5
    ##      bwt blength gaweeks  resid  pred
    ##    <dbl>   <dbl>   <dbl>  <dbl> <dbl>
    ##  1  3629      51    39.9  341.  3288.
    ##  2  3062      48    25.9  538.  2524.
    ##  3  3345      50    39.9  186.  3159.
    ##  4  3062      52    40   -357.  3419.
    ##  5  3374      52    41.6  -88.4 3462.
    ##  6  3374      52    40.7  -64.0 3438.
    ##  7  2523      46    40.3 -133.  2656.
    ##  8  2778      49    37.4 -185.  2963.
    ##  9  3515      52    40.3   87.8 3427.
    ## 10  3459      50    40.7  278.  3181.
    ## # … with 4,332 more rows
…
``` r
l3 = 
  lm(bwt ~ bhead + blength + babysex + bhead*blength + bhead*babysex + blength*babysex + bhead*blength*babysex, data = birth_wt)

third_set = 
  birth_wt %>% 
  select(bwt,bhead,blength,babysex) %>%
  add_residuals(l3) %>%
  add_predictions(l3)

third_set
```

    ## # A tibble: 4,342 × 6
    ##      bwt bhead blength babysex  resid  pred
    ##    <dbl> <dbl>   <dbl> <fct>    <dbl> <dbl>
    ##  1  3629    34      51 2        335.  3294.
    ##  2  3062    34      48 1         59.2 3003.
    ##  3  3345    36      50 2       -157.  3502.
    ##  4  3062    34      52 1       -274.  3336.
    ##  5  3374    34      52 2        -11.8 3386.
    ##  6  3374    33      52 1        191.  3183.
    ##  7  2523    33      46 2       -178.  2701.
    ##  8  2778    33      49 2       -187.  2965.
    ##  9  3515    36      52 1       -127.  3642.
    ## 10  3459    33      50 1        444.  3015.
    ## # … with 4,332 more rows
…
cv_df
```

    ## # A tibble: 100 × 9
    ##    train    test     .id   linear_m linear_m2 linear_m3 rmse_l…¹ rmse_…² rmse_…³
    ##    <list>   <list>   <chr> <list>   <list>    <list>       <dbl>   <dbl>   <dbl>
    ##  1 <tibble> <tibble> 001   <lm>     <lm>      <lm>          297.    349.    297.
    ##  2 <tibble> <tibble> 002   <lm>     <lm>      <lm>          298.    335.    297.
    ##  3 <tibble> <tibble> 003   <lm>     <lm>      <lm>          289.    324.    290.
    ##  4 <tibble> <tibble> 004   <lm>     <lm>      <lm>          296.    351.    299.
    ##  5 <tibble> <tibble> 005   <lm>     <lm>      <lm>          283.    327.    283.
    ##  6 <tibble> <tibble> 006   <lm>     <lm>      <lm>          286.    322.    287.
    ##  7 <tibble> <tibble> 007   <lm>     <lm>      <lm>          282.    330.    281.
    ##  8 <tibble> <tibble> 008   <lm>     <lm>      <lm>          295.    332.    294.
    ##  9 <tibble> <tibble> 009   <lm>     <lm>      <lm>          277.    328.    278.
    ## 10 <tibble> <tibble> 010   <lm>     <lm>      <lm>          281.    328.    281.
    ## # … with 90 more rows, and abbreviated variable names ¹​rmse_linear_1,
    ## #   ²​rmse_linear_2, ³​rmse_linear_3
…
